img,cls
./data/train/wl_cat/326028.jpg,wl_cat
./data/train/wl_cat/326002.jpg,wl_cat
./data/train/wl_cat/326033.jpg,wl_cat
./data/train/wl_cat/326029.jpg,wl_cat
./data/train/wl_cat/326044.jpg,wl_cat
./data/train/wl_cat/326023.jpg,wl_cat
./data/train/wl_cat/326005.jpg,wl_cat
./data/train/wl_cat/326013.jpg,wl_cat
./data/train/wl_cat/326041.jpg,wl_cat
./data/train/wl_cat/326036.jpg,wl_cat
./data/train/wl_cat/326030.jpg,wl_cat
./data/train/wl_cat/326016.jpg,wl_cat
./data/train/wl_cat/326012.jpg,wl_cat
./data/train/wl_cat/326038.jpg,wl_cat
./data/train/wl_cat/326022.jpg,wl_cat
./data/train/wl_cat/326034.jpg,wl_cat
./data/train/wl_cat/326018.jpg,wl_cat
./data/train/wl_cat/326024.jpg,wl_cat
./data/train/wl_cat/326006.jpg,wl_cat
./data/train/wl_cat/326039.jpg,wl_cat
./data/train/wl_cat/326009.jpg,wl_cat
./data/train/wl_cat/326003.jpg,wl_cat
./data/train/wl_cat/326020.jpg,wl_cat
./data/train/wl_cat/326035.jpg,wl_cat
./data/train/wl_cat/326032.jpg,wl_cat
./data/train/wl_cat/326000.jpg,wl_cat
./data/train/wl_cat/326021.jpg,wl_cat
./data/train/wl_cat/326007.jpg,wl_cat
./data/train/wl_cat/326014.jpg,wl_cat
./data/train/wl_cat/326025.jpg,wl_cat
./data/train/wl_cat/326031.jpg,wl_cat
./data/train/wl_cat/326043.jpg,wl_cat
./data/train/wl_cat/326037.jpg,wl_cat
./data/train/wl_cat/326008.jpg,wl_cat
./data/train/wl_cat/326001.jpg,wl_cat
./data/train/wl_cat/326026.jpg,wl_cat
./data/train/wl_cat/326040.jpg,wl_cat
./data/train/wl_cat/326019.jpg,wl_cat
./data/train/wl_cat/326042.jpg,wl_cat
./data/train/wl_cat/326027.jpg,wl_cat
./data/train/wl_cat/326017.jpg,wl_cat
./data/train/wl_cat/326011.jpg,wl_cat
./data/train/wl_cat/326010.jpg,wl_cat
./data/train/wl_cat/326004.jpg,wl_cat
./data/train/wl_cat/326015.jpg,wl_cat
./data/train/obj_234000/234026.jpg,obj_234000
./data/train/obj_234000/234001.jpg,obj_234000
./data/train/obj_234000/234014.jpg,obj_234000
./data/train/obj_234000/234032.jpg,obj_234000
./data/train/obj_234000/234018.jpg,obj_234000
./data/train/obj_234000/234021.jpg,obj_234000
./data/train/obj_234000/234044.jpg,obj_234000
./data/train/obj_234000/234012.jpg,obj_234000
./data/train/obj_234000/234004.jpg,obj_234000
./data/train/obj_234000/234042.jpg,obj_234000
./data/train/obj_234000/234020.jpg,obj_234000
./data/train/obj_234000/234002.jpg,obj_234000
./data/train/obj_234000/234016.jpg,obj_234000
./data/train/obj_234000/234034.jpg,obj_234000
./data/train/obj_234000/234039.jpg,obj_234000
./data/train/obj_234000/234017.jpg,obj_234000
./data/train/obj_234000/234031.jpg,obj_234000
./data/train/obj_234000/234007.jpg,obj_234000
./data/train/obj_234000/234043.jpg,obj_234000
./data/train/obj_234000/234041.jpg,obj_234000
./data/train/obj_234000/234022.jpg,obj_234000
./data/train/obj_234000/234030.jpg,obj_234000
./data/train/obj_234000/234000.jpg,obj_234000
./data/train/obj_234000/234010.jpg,obj_234000
./data/train/obj_234000/234005.jpg,obj_234000
./data/train/obj_234000/234003.jpg,obj_234000
./data/train/obj_234000/234015.jpg,obj_234000
./data/train/obj_234000/234006.jpg,obj_234000
./data/train/obj_234000/234009.jpg,obj_234000
./data/train/obj_234000/234027.jpg,obj_234000
./data/train/obj_234000/234037.jpg,obj_234000
./data/train/obj_234000/234029.jpg,obj_234000
./data/train/obj_234000/234025.jpg,obj_234000
./data/train/obj_234000/234011.jpg,obj_234000
./data/train/obj_234000/234024.jpg,obj_234000
./data/train/obj_234000/234023.jpg,obj_234000
./data/train/obj_234000/234028.jpg,obj_234000
./data/train/obj_234000/234038.jpg,obj_234000
./data/train/obj_234000/234013.jpg,obj_234000
./data/train/obj_234000/234033.jpg,obj_234000
./data/train/obj_234000/234035.jpg,obj_234000
./data/train/obj_234000/234036.jpg,obj_234000
./data/train/obj_234000/234019.jpg,obj_234000
./data/train/obj_234000/234008.jpg,obj_234000
./data/train/obj_234000/234040.jpg,obj_234000
./data/train/sc_iceburg/184030.jpg,sc_iceburg
./data/train/sc_iceburg/184006.jpg,sc_iceburg
./data/train/sc_iceburg/184001.jpg,sc_iceburg
./data/train/sc_iceburg/184008.jpg,sc_iceburg
./data/train/sc_iceburg/184035.jpg,sc_iceburg
./data/train/sc_iceburg/184031.jpg,sc_iceburg
./data/train/sc_iceburg/184011.jpg,sc_iceburg
./data/train/sc_iceburg/184018.jpg,sc_iceburg
./data/train/sc_iceburg/184032.jpg,sc_iceburg
./data/train/sc_iceburg/184017.jpg,sc_iceburg
./data/train/sc_iceburg/184019.jpg,sc_iceburg
./data/train/sc_iceburg/184023.jpg,sc_iceburg
./data/train/sc_iceburg/184029.jpg,sc_iceburg
./data/train/sc_iceburg/184022.jpg,sc_iceburg
./data/train/sc_iceburg/184040.jpg,sc_iceburg
./data/train/sc_iceburg/184041.jpg,sc_iceburg
./data/train/sc_iceburg/184010.jpg,sc_iceburg
./data/train/sc_iceburg/184026.jpg,sc_iceburg
./data/train/sc_iceburg/184033.jpg,sc_iceburg
./data/train/sc_iceburg/184004.jpg,sc_iceburg
./data/train/sc_iceburg/184044.jpg,sc_iceburg
./data/train/sc_iceburg/184005.jpg,sc_iceburg
./data/train/sc_iceburg/184024.jpg,sc_iceburg
./data/train/sc_iceburg/184043.jpg,sc_iceburg
./data/train/sc_iceburg/184002.jpg,sc_iceburg
./data/train/sc_iceburg/184020.jpg,sc_iceburg
./data/train/sc_iceburg/184036.jpg,sc_iceburg
./data/train/sc_iceburg/184039.jpg,sc_iceburg
./data/train/sc_iceburg/184016.jpg,sc_iceburg
./data/train/sc_iceburg/184013.jpg,sc_iceburg
./data/train/sc_iceburg/184038.jpg,sc_iceburg
./data/train/sc_iceburg/184034.jpg,sc_iceburg
./data/train/sc_iceburg/184007.jpg,sc_iceburg
./data/train/sc_iceburg/184037.jpg,sc_iceburg
./data/train/sc_iceburg/184025.jpg,sc_iceburg
./data/train/sc_iceburg/184027.jpg,sc_iceburg
./data/train/sc_iceburg/184028.jpg,sc_iceburg
./data/train/sc_iceburg/184042.jpg,sc_iceburg
./data/train/sc_iceburg/184015.jpg,sc_iceburg
./data/train/sc_iceburg/184000.jpg,sc_iceburg
./data/train/sc_iceburg/184014.jpg,sc_iceburg
./data/train/sc_iceburg/184009.jpg,sc_iceburg
./data/train/sc_iceburg/184021.jpg,sc_iceburg
./data/train/sc_iceburg/184003.jpg,sc_iceburg
./data/train/sc_iceburg/184012.jpg,sc_iceburg
./data/train/sc_cloud/191041.jpg,sc_cloud
./data/train/sc_cloud/191052.jpg,sc_cloud
./data/train/sc_cloud/191047.jpg,sc_cloud
./data/train/sc_cloud/191004.jpg,sc_cloud
./data/train/sc_cloud/191038.jpg,sc_cloud
./data/train/sc_cloud/191021.jpg,sc_cloud
./data/train/sc_cloud/191037.jpg,sc_cloud
./data/train/sc_cloud/191000.jpg,sc_cloud
./data/train/sc_cloud/191022.jpg,sc_cloud
./data/train/sc_cloud/191042.jpg,sc_cloud
./data/train/sc_cloud/191055.jpg,sc_cloud
./data/train/sc_cloud/191030.jpg,sc_cloud
./data/train/sc_cloud/191011.jpg,sc_cloud
./data/train/sc_cloud/191045.jpg,sc_cloud
./data/train/sc_cloud/191046.jpg,sc_cloud
./data/train/sc_cloud/191024.jpg,sc_cloud
./data/train/sc_cloud/191058.jpg,sc_cloud
./data/train/sc_cloud/191018.jpg,sc_cloud
./data/train/sc_cloud/191039.jpg,sc_cloud
./data/train/sc_cloud/191056.jpg,sc_cloud
./data/train/sc_cloud/191049.jpg,sc_cloud
./data/train/sc_cloud/191006.jpg,sc_cloud
./data/train/sc_cloud/191051.jpg,sc_cloud
./data/train/sc_cloud/191025.jpg,sc_cloud
./data/train/sc_cloud/191027.jpg,sc_cloud
./data/train/sc_cloud/191054.jpg,sc_cloud
./data/train/sc_cloud/191044.jpg,sc_cloud
./data/train/sc_cloud/191048.jpg,sc_cloud
./data/train/sc_cloud/191023.jpg,sc_cloud
./data/train/sc_cloud/191020.jpg,sc_cloud
./data/train/sc_cloud/191032.jpg,sc_cloud
./data/train/sc_cloud/191031.jpg,sc_cloud
./data/train/sc_cloud/191013.jpg,sc_cloud
./data/train/sc_cloud/191014.jpg,sc_cloud
./data/train/sc_cloud/191029.jpg,sc_cloud
./data/train/sc_cloud/191033.jpg,sc_cloud
./data/train/sc_cloud/191017.jpg,sc_cloud
./data/train/sc_cloud/191059.jpg,sc_cloud
./data/train/sc_cloud/191008.jpg,sc_cloud
./data/train/sc_cloud/191005.jpg,sc_cloud
./data/train/sc_cloud/191036.jpg,sc_cloud
./data/train/sc_cloud/191040.jpg,sc_cloud
./data/train/sc_cloud/191012.jpg,sc_cloud
./data/train/sc_cloud/191035.jpg,sc_cloud
./data/train/sc_cloud/191050.jpg,sc_cloud
./data/train/sc_cloud/191001.jpg,sc_cloud
./data/train/sc_cloud/191002.jpg,sc_cloud
./data/train/sc_cloud/191019.jpg,sc_cloud
./data/train/sc_cloud/191060.jpg,sc_cloud
./data/train/sc_cloud/191053.jpg,sc_cloud
./data/train/sc_cloud/191007.jpg,sc_cloud
./data/train/sc_cloud/191026.jpg,sc_cloud
./data/train/sc_cloud/191043.jpg,sc_cloud
./data/train/sc_cloud/191057.jpg,sc_cloud
./data/train/sc_cloud/191003.jpg,sc_cloud
./data/train/sc_cloud/191016.jpg,sc_cloud
./data/train/sc_cloud/191061.jpg,sc_cloud
./data/train/sc_cloud/191009.jpg,sc_cloud
./data/train/sc_cloud/191015.jpg,sc_cloud
./data/train/bld_sculpt/665023.jpg,bld_sculpt
./data/train/bld_sculpt/470091.jpg,bld_sculpt
./data/train/bld_sculpt/665022.jpg,bld_sculpt
./data/train/bld_sculpt/470097.jpg,bld_sculpt
./data/train/bld_sculpt/470081.jpg,bld_sculpt
./data/train/bld_sculpt/470093.jpg,bld_sculpt
./data/train/bld_sculpt/470080.jpg,bld_sculpt
./data/train/bld_sculpt/470023.jpg,bld_sculpt
./data/train/bld_sculpt/665019.jpg,bld_sculpt
./data/train/bld_sculpt/470096.jpg,bld_sculpt
./data/train/bld_sculpt/470089.jpg,bld_sculpt
./data/train/bld_sculpt/470064.jpg,bld_sculpt
./data/train/bld_sculpt/470088.jpg,bld_sculpt
./data/train/bld_sculpt/470065.jpg,bld_sculpt
./data/train/bld_sculpt/665007.jpg,bld_sculpt
./data/train/bld_sculpt/470084.jpg,bld_sculpt
./data/train/bld_sculpt/470048.jpg,bld_sculpt
./data/train/bld_sculpt/470009.jpg,bld_sculpt
./data/train/bld_sculpt/470055.jpg,bld_sculpt
./data/train/bld_sculpt/470025.jpg,bld_sculpt
./data/train/bld_sculpt/470010.jpg,bld_sculpt
./data/train/bld_sculpt/470035.jpg,bld_sculpt
./data/train/bld_sculpt/470021.jpg,bld_sculpt
./data/train/bld_sculpt/470018.jpg,bld_sculpt
./data/train/bld_sculpt/470075.jpg,bld_sculpt
./data/train/bld_sculpt/470017.jpg,bld_sculpt
./data/train/bld_sculpt/470032.jpg,bld_sculpt
./data/train/bld_sculpt/470041.jpg,bld_sculpt
./data/train/bld_sculpt/470066.jpg,bld_sculpt
./data/train/bld_sculpt/470062.jpg,bld_sculpt
./data/train/bld_sculpt/470087.jpg,bld_sculpt
./data/train/bld_sculpt/665049.jpg,bld_sculpt
./data/train/bld_sculpt/470090.jpg,bld_sculpt
./data/train/bld_sculpt/470079.jpg,bld_sculpt
./data/train/bld_sculpt/470019.jpg,bld_sculpt
./data/train/bld_sculpt/665046.jpg,bld_sculpt
./data/train/bld_sculpt/470043.jpg,bld_sculpt
./data/train/bld_sculpt/470077.jpg,bld_sculpt
./data/train/bld_sculpt/665044.jpg,bld_sculpt
./data/train/bld_sculpt/470044.jpg,bld_sculpt
./data/train/bld_sculpt/470033.jpg,bld_sculpt
./data/train/bld_sculpt/470085.jpg,bld_sculpt
./data/train/bld_sculpt/470016.jpg,bld_sculpt
./data/train/bld_sculpt/470083.jpg,bld_sculpt
./data/train/bld_sculpt/470082.jpg,bld_sculpt
./data/train/bld_sculpt/470076.jpg,bld_sculpt
./data/train/bld_sculpt/470054.jpg,bld_sculpt
./data/train/bld_sculpt/470095.jpg,bld_sculpt
./data/train/bld_sculpt/470003.jpg,bld_sculpt
./data/train/bld_sculpt/470034.jpg,bld_sculpt
./data/train/bld_sculpt/470022.jpg,bld_sculpt
./data/train/bld_sculpt/665047.jpg,bld_sculpt
./data/train/bld_sculpt/470024.jpg,bld_sculpt
./data/train/bld_sculpt/470027.jpg,bld_sculpt
./data/train/bld_sculpt/470050.jpg,bld_sculpt
./data/train/bld_sculpt/470061.jpg,bld_sculpt
./data/train/bld_sculpt/470092.jpg,bld_sculpt
./data/train/bld_sculpt/470052.jpg,bld_sculpt
./data/train/bld_sculpt/470060.jpg,bld_sculpt
./data/train/bld_sculpt/470099.jpg,bld_sculpt
./data/train/bld_sculpt/470058.jpg,bld_sculpt
./data/train/bld_sculpt/470026.jpg,bld_sculpt
./data/train/bld_sculpt/470038.jpg,bld_sculpt
./data/train/bld_sculpt/470037.jpg,bld_sculpt
./data/train/bld_sculpt/665024.jpg,bld_sculpt
./data/train/bld_sculpt/470070.jpg,bld_sculpt
./data/train/bld_sculpt/470046.jpg,bld_sculpt
./data/train/bld_sculpt/470056.jpg,bld_sculpt
./data/train/bld_sculpt/470071.jpg,bld_sculpt
./data/train/bld_sculpt/470039.jpg,bld_sculpt
./data/train/bld_sculpt/470012.jpg,bld_sculpt
./data/train/bld_sculpt/470031.jpg,bld_sculpt
./data/train/bld_sculpt/665050.jpg,bld_sculpt
./data/train/bld_sculpt/470053.jpg,bld_sculpt
./data/train/bld_sculpt/470094.jpg,bld_sculpt
./data/train/bld_sculpt/470098.jpg,bld_sculpt
./data/train/bld_sculpt/470040.jpg,bld_sculpt
./data/train/bld_sculpt/470036.jpg,bld_sculpt
./data/train/bld_sculpt/470069.jpg,bld_sculpt
./data/train/bld_sculpt/665001.jpg,bld_sculpt
./data/train/bld_sculpt/470067.jpg,bld_sculpt
./data/train/bld_sculpt/470051.jpg,bld_sculpt
./data/train/bld_sculpt/470047.jpg,bld_sculpt
./data/train/bld_sculpt/470059.jpg,bld_sculpt
./data/train/bld_sculpt/470074.jpg,bld_sculpt
./data/train/bld_sculpt/665016.jpg,bld_sculpt
./data/train/bld_sculpt/470049.jpg,bld_sculpt
./data/train/bld_sculpt/470078.jpg,bld_sculpt
./data/train/bld_sculpt/470086.jpg,bld_sculpt
./data/train/bld_sculpt/470045.jpg,bld_sculpt
./data/train/bld_sculpt/470063.jpg,bld_sculpt
./data/train/bld_sculpt/470068.jpg,bld_sculpt
./data/train/bld_sculpt/665048.jpg,bld_sculpt
./data/train/bld_sculpt/470057.jpg,bld_sculpt
./data/train/obj_eastregg/618038.jpg,obj_eastregg
./data/train/obj_eastregg/618019.jpg,obj_eastregg
./data/train/obj_eastregg/618014.jpg,obj_eastregg
./data/train/obj_eastregg/618012.jpg,obj_eastregg
./data/train/obj_eastregg/618035.jpg,obj_eastregg
./data/train/obj_eastregg/618013.jpg,obj_eastregg
./data/train/obj_eastregg/618033.jpg,obj_eastregg
./data/train/obj_eastregg/618048.jpg,obj_eastregg
./data/train/obj_eastregg/618047.jpg,obj_eastregg
./data/train/obj_eastregg/618006.jpg,obj_eastregg
./data/train/obj_eastregg/618010.jpg,obj_eastregg
./data/train/obj_eastregg/618044.jpg,obj_eastregg
./data/train/obj_eastregg/618009.jpg,obj_eastregg
./data/train/obj_eastregg/618030.jpg,obj_eastregg
./data/train/obj_eastregg/618052.jpg,obj_eastregg
./data/train/obj_eastregg/618026.jpg,obj_eastregg
./data/train/obj_eastregg/618049.jpg,obj_eastregg
./data/train/obj_eastregg/618050.jpg,obj_eastregg
./data/train/obj_eastregg/618036.jpg,obj_eastregg
./data/train/obj_eastregg/618041.jpg,obj_eastregg
./data/train/obj_eastregg/618004.jpg,obj_eastregg
./data/train/obj_eastregg/618023.jpg,obj_eastregg
./data/train/obj_eastregg/618002.jpg,obj_eastregg
./data/train/obj_eastregg/618037.jpg,obj_eastregg
./data/train/obj_eastregg/618021.jpg,obj_eastregg
./data/train/obj_eastregg/618022.jpg,obj_eastregg
./data/train/obj_eastregg/618018.jpg,obj_eastregg
./data/train/obj_eastregg/618032.jpg,obj_eastregg
./data/train/obj_eastregg/618007.jpg,obj_eastregg
./data/train/obj_eastregg/618045.jpg,obj_eastregg
./data/train/obj_eastregg/618025.jpg,obj_eastregg
./data/train/obj_eastregg/618034.jpg,obj_eastregg
./data/train/obj_eastregg/618015.jpg,obj_eastregg
./data/train/obj_eastregg/618011.jpg,obj_eastregg
./data/train/obj_eastregg/618031.jpg,obj_eastregg
./data/train/obj_eastregg/618008.jpg,obj_eastregg
./data/train/obj_eastregg/618051.jpg,obj_eastregg
./data/train/obj_eastregg/618042.jpg,obj_eastregg
./data/train/obj_eastregg/618055.jpg,obj_eastregg
./data/train/obj_eastregg/618054.jpg,obj_eastregg
./data/train/obj_eastregg/618058.jpg,obj_eastregg
./data/train/obj_eastregg/618001.jpg,obj_eastregg
./data/train/obj_eastregg/618024.jpg,obj_eastregg
./data/train/obj_eastregg/618020.jpg,obj_eastregg
./data/train/obj_eastregg/618027.jpg,obj_eastregg
./data/train/obj_eastregg/618040.jpg,obj_eastregg
./data/train/obj_eastregg/618039.jpg,obj_eastregg
./data/train/obj_eastregg/618003.jpg,obj_eastregg
./data/train/obj_eastregg/618005.jpg,obj_eastregg
./data/train/obj_eastregg/618028.jpg,obj_eastregg
./data/train/obj_eastregg/618056.jpg,obj_eastregg
./data/train/obj_eastregg/618043.jpg,obj_eastregg
./data/train/obj_eastregg/618057.jpg,obj_eastregg
./data/train/obj_eastregg/618000.jpg,obj_eastregg
./data/train/obj_eastregg/618016.jpg,obj_eastregg
./data/train/obj_eastregg/618017.jpg,obj_eastregg
./data/train/obj_eastregg/618053.jpg,obj_eastregg
./data/train/obj_eastregg/618029.jpg,obj_eastregg
./data/train/obj_eastregg/618046.jpg,obj_eastregg